.............
----------------------------------------------------------------------
Ran 13 tests in 0.001s

OK
Name             Stmts   Miss Branch BrPart  Cover   Missing
------------------------------------------------------------
Collatz.py          29      0      6      0   100%
TestCollatz.py      54      0      0      0   100%
------------------------------------------------------------
TOTAL               83      0      6      0   100%
