...................
----------------------------------------------------------------------
Ran 19 tests in 8.962s

OK
Name             Stmts   Miss Branch BrPart  Cover   Missing
------------------------------------------------------------
Collatz.py          47      0     20      0   100%
TestCollatz.py      83      0      0      0   100%
------------------------------------------------------------
TOTAL              130      0     20      0   100%
